{
	"additionalNodes": [],
	"additionalParameters": {
		"root": {
			"height": 108,
			"width": 262
		}
	},
	"inputs": [],
	"outputs": [],
	"properties": {
		"28KHk1LSOLojIBrBYal1hk92dZNgV3RA": {
			"height": 60,
			"title": "wind debug",
			"width": 154,
			"x": 1519,
			"y": -111
		},
		"9wRYetUWOJthKhrcXHEk98kbnJHIy9Wn": {
			"height": 90,
			"title": "if commander is assigned",
			"width": 265,
			"x": 1243,
			"y": 306
		},
		"A2e8aJPwRF1EfCE5O8moFFXjXuf4dv6B": {
			"height": 60,
			"title": "wind info",
			"width": 137,
			"x": 1517,
			"y": -11
		},
		"AGWiUd1pe8UN0FQqO71PfzbqHz1jo92d": {
			"height": 90,
			"title": "luaCondition",
			"width": 195,
			"x": 1676,
			"y": -22
		},
		"AZCU0Sf0TTREbv75KN17pINfsOlKLIjl": {
			"height": 90,
			"title": "Common.relativeMove",
			"width": 557,
			"x": 2413,
			"y": 175
		},
		"B3DmHNvZmoEdFHpuj4j8YZvmRXWuBAx1": {
			"height": 60,
			"title": "formation data",
			"width": 189,
			"x": 906,
			"y": -157
		},
		"CFxKzvIULTXbna2iKIkaolBaJVxfyu94": {
			"height": 60,
			"title": "move in a formation",
			"width": 207,
			"x": 999,
			"y": 214
		},
		"FfhdKqpttt4aPPAa3AHNn25wXnytAm2I": {
			"height": 89,
			"title": "move",
			"width": 198,
			"x": 2182,
			"y": 176
		},
		"H7PWOp5I8NSorgPz2gcEQ1vnXB7Zu4na": {
			"height": 70,
			"title": "roleSplit",
			"width": 202,
			"x": 753,
			"y": 12
		},
		"I0P53Z2xSCyg8yBGS2Ckze6rGrjZpaWR": {
			"height": 93,
			"title": "store",
			"width": 151,
			"x": 1243,
			"y": 202
		},
		"LbzdZJaT9XL9uOQdP0hR2E8dzHYKGCuJ": {
			"height": 90,
			"title": "Common.relativeMove",
			"width": 557,
			"x": 2413,
			"y": 263
		},
		"MdOliBfVuvxNAnsEQ5Jw2ijzeqiQOyvd": {
			"height": 94,
			"title": "store",
			"width": 202,
			"x": 1098,
			"y": -170
		},
		"N1q0fj1xidiJiEQOM3XSe2ZGtsZUphvU": {
			"height": 60,
			"title": "sequence",
			"width": 143,
			"x": 291,
			"y": 17
		},
		"NJ8bhDUNhR39LFQOt61xFgYmWAfRKW8G": {
			"height": 90,
			"title": "wait for the other units if necessary",
			"width": 459,
			"x": 1679,
			"y": 74
		},
		"OsgsWVcvogBPAN0BmhOc3SKkKdq3IDdF": {
			"height": 94,
			"title": "store",
			"width": 340,
			"x": 1682,
			"y": -123
		},
		"SjzkhLRRrWeG0OeADDefArsyLemnEKsp": {
			"height": 60,
			"title": "repeat",
			"width": 131,
			"x": 752,
			"y": -157
		},
		"SvvVZzF8fgHNlEKdEgFZm00bIk4dVUB1": {
			"height": 94,
			"title": "store",
			"width": 331,
			"x": 2096,
			"y": -111
		},
		"TLfyBxdSHsXmBM12dLQ83gy7LnH4lZ5N": {
			"height": 92,
			"title": "store",
			"width": 149,
			"x": 485,
			"y": -193
		},
		"TdezbRo6ECKezeCLxwmJIEdPiMTQIEuU": {
			"height": 92,
			"title": "store",
			"width": 243,
			"x": 486,
			"y": -98
		},
		"U33lgzLl5c7raqoKNUwonNxll5erY94U": {
			"height": 132,
			"title": "grid formation",
			"width": 273,
			"x": 1554,
			"y": 238
		},
		"UquDhdHXS9Ftl87Ia0I13X3oQlZVZdPb": {
			"height": 90,
			"title": "wait",
			"width": 557,
			"x": 2183,
			"y": 74
		},
		"VsZVYiqQkFCwbwyJsQD8ih0dUPsNzRO8": {
			"height": 95,
			"title": "store",
			"width": 184,
			"x": 1107,
			"y": -282
		},
		"WfnEMpvxP6E3zSHurQHV9ENtlNAczNBW": {
			"height": 92,
			"title": "store",
			"width": 175,
			"x": 2095,
			"y": -22
		},
		"YnwwmfZhdkrDl8cBuu5hUvxqGfU45muW": {
			"height": 54,
			"title": "failure",
			"width": 131,
			"x": 1283,
			"y": 108
		},
		"ZptYIsZl7RcGx26JhWsEPPfZtajSGQAf": {
			"height": 90,
			"title": "if only 1 commander",
			"width": 262,
			"x": 992,
			"y": 5
		},
		"at2oqJSPmyoR7VRdlTEKZkwDAcluiDw4": {
			"height": 70,
			"title": "parallel",
			"width": 202,
			"x": 1281,
			"y": 13
		},
		"c3ZK2sRtcHyl8Zd6IQB2tOVxbyPi3LDw": {
			"height": 60,
			"title": "sequence",
			"width": 143,
			"x": 1908,
			"y": -11
		},
		"gx0LgbCE8J3pFHAm3uwfjGENOcNkqiMO": {
			"height": 70,
			"title": "parallel",
			"width": 202,
			"x": 514,
			"y": 13
		},
		"nqkoJPHzIUpqcRa8XAM0goSA2k157K6G": {
			"height": 60,
			"title": "movement",
			"width": 148,
			"x": 1517,
			"y": 85
		},
		"sl8iePp8a6YyXF38hOnp98R2vkfWa3CT": {
			"height": 54,
			"title": "failure",
			"width": 131,
			"x": 1555,
			"y": 390
		}
	},
	"roles": [ {
		"categories": [ "nota_michelle_intro.battleCommanderCategory" ],
		"name": "Commander"
	}, {
		"categories": [],
		"name": "Others"
	} ],
	"root": {
		"children": [ {
			"children": [],
			"id": "TLfyBxdSHsXmBM12dLQ83gy7LnH4lZ5N",
			"nodeType": "luaCommand",
			"parameters": [ {
				"name": "var",
				"value": "moveLength"
			}, {
				"name": "value",
				"value": "200"
			}, {
				"name": "scriptName",
				"value": "store"
			} ],
			"scriptName": "store"
		}, {
			"children": [],
			"id": "TdezbRo6ECKezeCLxwmJIEdPiMTQIEuU",
			"nodeType": "luaCommand",
			"parameters": [ {
				"name": "var",
				"value": "windDebugLengthMultiplier"
			}, {
				"name": "value",
				"value": "50"
			}, {
				"name": "scriptName",
				"value": "store"
			} ],
			"scriptName": "store"
		}, {
			"children": [ {
				"children": [ {
					"children": [ {
						"children": [],
						"id": "VsZVYiqQkFCwbwyJsQD8ih0dUPsNzRO8",
						"nodeType": "luaCommand",
						"parameters": [ {
							"name": "var",
							"value": "form"
						}, {
							"name": "value",
							"value": "FormationInfo()"
						}, {
							"name": "scriptName",
							"value": "store"
						} ],
						"scriptName": "store"
					}, {
						"children": [],
						"id": "MdOliBfVuvxNAnsEQ5Jw2ijzeqiQOyvd",
						"nodeType": "luaCommand",
						"parameters": [ {
							"name": "var",
							"value": "closestUnitDist"
						}, {
							"name": "value",
							"value": "ClosestOtherUnit()"
						}, {
							"name": "scriptName",
							"value": "store"
						} ],
						"scriptName": "store"
					} ],
					"id": "B3DmHNvZmoEdFHpuj4j8YZvmRXWuBAx1",
					"nodeType": "sequence",
					"parameters": []
				} ],
				"id": "SjzkhLRRrWeG0OeADDefArsyLemnEKsp",
				"nodeType": "repeat",
				"parameters": []
			}, {
				"children": [ {
					"children": [ {
						"children": [ {
							"children": [ {
								"children": [],
								"id": "OsgsWVcvogBPAN0BmhOc3SKkKdq3IDdF",
								"nodeType": "luaCommand",
								"parameters": [ {
									"name": "var",
									"value": "_windDebug"
								}, {
									"name": "value",
									"value": "WindDebug(windDebugLengthMultiplier)"
								}, {
									"name": "scriptName",
									"value": "store"
								} ],
								"scriptName": "store"
							} ],
							"id": "28KHk1LSOLojIBrBYal1hk92dZNgV3RA",
							"nodeType": "repeat",
							"parameters": []
						}, {
							"children": [ {
								"children": [ {
									"children": [ {
										"children": [],
										"id": "SvvVZzF8fgHNlEKdEgFZm00bIk4dVUB1",
										"nodeType": "luaCommand",
										"parameters": [ {
											"name": "var",
											"value": "windInfo"
										}, {
											"name": "value",
											"value": "map.Wind()"
										}, {
											"name": "scriptName",
											"value": "store"
										} ],
										"scriptName": "store"
									}, {
										"children": [],
										"id": "WfnEMpvxP6E3zSHurQHV9ENtlNAczNBW",
										"nodeType": "luaCommand",
										"parameters": [ {
											"name": "var",
											"value": "resetMove"
										}, {
											"name": "value",
											"value": "not resetMove"
										}, {
											"name": "scriptName",
											"value": "store"
										} ],
										"scriptName": "store"
									} ],
									"id": "c3ZK2sRtcHyl8Zd6IQB2tOVxbyPi3LDw",
									"nodeType": "sequence",
									"parameters": []
								} ],
								"id": "AGWiUd1pe8UN0FQqO71PfzbqHz1jo92d",
								"nodeType": "luaCondition",
								"parameters": [ {
									"name": "expression",
									"value": "windInfo ~= map.Wind()"
								}, {
									"name": "repeat",
									"value": "true"
								} ]
							} ],
							"id": "A2e8aJPwRF1EfCE5O8moFFXjXuf4dv6B",
							"nodeType": "repeat",
							"parameters": []
						}, {
							"children": [ {
								"children": [ {
									"children": [],
									"id": "UquDhdHXS9Ftl87Ia0I13X3oQlZVZdPb",
									"nodeType": "luaCommand",
									"parameters": [ {
										"name": "dist",
										"value": "{x = 0, z = 0}"
									}, {
										"name": "fight",
										"value": "false"
									}, {
										"name": "scriptName",
										"value": "Common.relativeMove"
									} ],
									"scriptName": "Common.relativeMove"
								}, {
									"children": [ {
										"children": [],
										"id": "AZCU0Sf0TTREbv75KN17pINfsOlKLIjl",
										"nodeType": "luaCommand",
										"parameters": [ {
											"name": "dist",
											"value": "{x = windInfo.normDirX * moveLength, z = windInfo.normDirZ * moveLength}"
										}, {
											"name": "fight",
											"value": "false"
										}, {
											"name": "scriptName",
											"value": "Common.relativeMove"
										} ],
										"scriptName": "Common.relativeMove"
									}, {
										"children": [],
										"id": "LbzdZJaT9XL9uOQdP0hR2E8dzHYKGCuJ",
										"nodeType": "luaCommand",
										"parameters": [ {
											"name": "dist",
											"value": "{x = windInfo.normDirX * moveLength, z = windInfo.normDirZ * moveLength}"
										}, {
											"name": "fight",
											"value": "false"
										}, {
											"name": "scriptName",
											"value": "Common.relativeMove"
										} ],
										"scriptName": "Common.relativeMove"
									} ],
									"id": "FfhdKqpttt4aPPAa3AHNn25wXnytAm2I",
									"nodeType": "luaCondition",
									"parameters": [ {
										"name": "expression",
										"value": "resetMove == true"
									}, {
										"name": "repeat",
										"value": "true"
									} ]
								} ],
								"id": "NJ8bhDUNhR39LFQOt61xFgYmWAfRKW8G",
								"nodeType": "luaCondition",
								"parameters": [ {
									"name": "expression",
									"value": "othersCount ~= nil and othersCount > 0 and closestUnitDist > 200"
								}, {
									"name": "repeat",
									"value": "true"
								} ]
							} ],
							"id": "nqkoJPHzIUpqcRa8XAM0goSA2k157K6G",
							"nodeType": "repeat",
							"parameters": []
						} ],
						"id": "at2oqJSPmyoR7VRdlTEKZkwDAcluiDw4",
						"nodeType": "parallel",
						"parameters": [ {
							"name": "mode",
							"value": "all-success"
						} ]
					}, {
						"children": [],
						"id": "YnwwmfZhdkrDl8cBuu5hUvxqGfU45muW",
						"nodeType": "failure",
						"parameters": []
					} ],
					"id": "ZptYIsZl7RcGx26JhWsEPPfZtajSGQAf",
					"nodeType": "luaCondition",
					"parameters": [ {
						"name": "expression",
						"value": "#units == 1"
					}, {
						"name": "repeat",
						"value": "false"
					} ]
				}, {
					"children": [ {
						"children": [],
						"id": "I0P53Z2xSCyg8yBGS2Ckze6rGrjZpaWR",
						"nodeType": "luaCommand",
						"parameters": [ {
							"name": "var",
							"value": "othersCount"
						}, {
							"name": "value",
							"value": "#units"
						}, {
							"name": "scriptName",
							"value": "store"
						} ],
						"scriptName": "store"
					}, {
						"children": [ {
							"children": [],
							"id": "U33lgzLl5c7raqoKNUwonNxll5erY94U",
							"nodeType": "luaCommand",
							"parameters": [ {
								"name": "groupDefintion",
								"value": "form.groupDefinition"
							}, {
								"name": "position",
								"value": "form.position"
							}, {
								"name": "formation",
								"value": "form.formation"
							}, {
								"name": "fight",
								"value": "false"
							}, {
								"name": "scriptName",
								"value": "formation.moveCustomGroup"
							} ],
							"scriptName": "formation.moveCustomGroup"
						}, {
							"children": [],
							"id": "sl8iePp8a6YyXF38hOnp98R2vkfWa3CT",
							"nodeType": "failure",
							"parameters": []
						} ],
						"id": "9wRYetUWOJthKhrcXHEk98kbnJHIy9Wn",
						"nodeType": "luaCondition",
						"parameters": [ {
							"name": "expression",
							"value": "form ~= nil and form.isCommander"
						}, {
							"name": "repeat",
							"value": "true"
						} ]
					} ],
					"id": "CFxKzvIULTXbna2iKIkaolBaJVxfyu94",
					"nodeType": "sequence",
					"parameters": []
				} ],
				"id": "H7PWOp5I8NSorgPz2gcEQ1vnXB7Zu4na",
				"nodeType": "roleSplit",
				"parameters": [ {
					"name": "mode",
					"value": "all-success"
				} ]
			} ],
			"id": "gx0LgbCE8J3pFHAm3uwfjGENOcNkqiMO",
			"nodeType": "parallel",
			"parameters": [ {
				"name": "mode",
				"value": "all-success"
			} ]
		} ],
		"id": "N1q0fj1xidiJiEQOM3XSe2ZGtsZUphvU",
		"nodeType": "sequence",
		"parameters": []
	}
}