{
	"additionalNodes": [],
	"additionalParameters": {
		"root": {
			"height": 88,
			"width": 180
		}
	},
	"inputs": [],
	"outputs": [],
	"properties": {
		"4Zo3OIKVCgnQy2AQiVxhzW1QAc7L2UJ2": {
			"height": 72,
			"title": "nota_michelle_intro.buyUnit",
			"width": 237,
			"x": 1633,
			"y": 326
		},
		"9EJV0gK0wiLRWQw6vr1it95gIR4pnr7I": {
			"height": 60,
			"title": "sequence",
			"width": 143,
			"x": 547,
			"y": 10
		},
		"Bk5YctzMwJrZNaZebaEDsK31Jk5zaPoJ": {
			"height": 90,
			"title": "luaCondition - Just buy Maverick",
			"width": 394,
			"x": 960,
			"y": 275
		},
		"DZgBSnVAWDpzdEm62Sy9pjue1xPn6lnr": {
			"height": 60,
			"title": "repeat",
			"width": 256,
			"x": 233,
			"y": 10
		},
		"FnJnow22ZWhwWS9Qk9oDeckCRDGj7UoE": {
			"height": 70,
			"title": "selector",
			"width": 131,
			"x": 758,
			"y": 6
		},
		"KH9zmtexwb2oF8CXOcOmU4AmrpXoZvEZ": {
			"height": 60,
			"title": "sequence",
			"width": 143,
			"x": 1433,
			"y": 151
		},
		"L5zEL9WM0wGFZDctD3iUZxvjGKIVLSQZ": {
			"height": 72,
			"title": "nota_michelle_intro.buyUnit",
			"width": 237,
			"x": 1631,
			"y": 49
		},
		"O9uSvHKl1dMI7j4N9gyYyifNUP53YexA": {
			"height": 60,
			"title": "sequence",
			"width": 143,
			"x": 1440,
			"y": 286
		},
		"OM3JET26kVjoIC9spRjwQFsWxlnCk8KW": {
			"height": 60,
			"title": "sequence",
			"width": 143,
			"x": 1440,
			"y": 9
		},
		"TcRXqTKnta8yjQMNszLhCVMiKmTLLlJb": {
			"height": 90,
			"title": "luaCondition - Not enough Infiltrators (4)",
			"width": 394,
			"x": 960,
			"y": 140
		},
		"edOpRgUyGchSFBa4W3E3HooUfQQ8xnVd": {
			"height": 72,
			"title": "wait - To let the current level of metal propagate",
			"width": 385,
			"x": 772,
			"y": 368
		},
		"m42MiXy3XzMv52SKbqmf2ji9Rl0X0DJ1": {
			"height": 74,
			"title": "waitUntil",
			"width": 346,
			"x": 1633,
			"y": 257
		},
		"mbH8yp0St08c61ZrL8CloyvWtzaq2CaI": {
			"height": 74,
			"title": "waitUntil",
			"width": 346,
			"x": 1631,
			"y": -20
		},
		"qIQxxP5af6tex1BujQr80DUoqaTC01xx": {
			"height": 90,
			"title": "luaCondition - Not enough Atlases (5)",
			"width": 440,
			"x": 956,
			"y": -1
		},
		"rv7sxvWoUSy6bQbuhkPZj5kdsoUF2QBB": {
			"height": 72,
			"title": "nota_michelle_intro.buyUnit",
			"width": 237,
			"x": 1633,
			"y": 191
		},
		"unqI1I6p0koxkXvPsWDN9k4jEoB1ZPon": {
			"height": 74,
			"title": "waitUntil",
			"width": 346,
			"x": 1633,
			"y": 122
		}
	},
	"roles": [ {
		"categories": [],
		"name": "Role 0"
	} ],
	"root": {
		"children": [ {
			"children": [ {
				"children": [ {
					"children": [ {
						"children": [ {
							"children": [],
							"id": "mbH8yp0St08c61ZrL8CloyvWtzaq2CaI",
							"nodeType": "luaCommand",
							"parameters": [ {
								"name": "condition",
								"value": "HaveEnoughMetal(\"armatlas\", nil, nil)"
							}, {
								"name": "scriptName",
								"value": "waitUntil"
							} ],
							"scriptName": "waitUntil"
						}, {
							"children": [],
							"id": "L5zEL9WM0wGFZDctD3iUZxvjGKIVLSQZ",
							"nodeType": "luaCommand",
							"parameters": [ {
								"name": "unitName",
								"value": "'armatlas'"
							}, {
								"name": "scriptName",
								"value": "nota_michelle_intro.buyUnit"
							} ],
							"scriptName": "nota_michelle_intro.buyUnit"
						} ],
						"id": "OM3JET26kVjoIC9spRjwQFsWxlnCk8KW",
						"nodeType": "sequence",
						"parameters": []
					} ],
					"id": "qIQxxP5af6tex1BujQr80DUoqaTC01xx",
					"nodeType": "luaCondition",
					"parameters": [ {
						"name": "expression",
						"value": "bb.unitCounts.atlases < 5"
					}, {
						"name": "repeat",
						"value": "false"
					} ]
				}, {
					"children": [ {
						"children": [ {
							"children": [],
							"id": "unqI1I6p0koxkXvPsWDN9k4jEoB1ZPon",
							"nodeType": "luaCommand",
							"parameters": [ {
								"name": "condition",
								"value": "HaveEnoughMetal(\"armspy\", nil, nil)"
							}, {
								"name": "scriptName",
								"value": "waitUntil"
							} ],
							"scriptName": "waitUntil"
						}, {
							"children": [],
							"id": "rv7sxvWoUSy6bQbuhkPZj5kdsoUF2QBB",
							"nodeType": "luaCommand",
							"parameters": [ {
								"name": "unitName",
								"value": "'armspy'"
							}, {
								"name": "scriptName",
								"value": "nota_michelle_intro.buyUnit"
							} ],
							"scriptName": "nota_michelle_intro.buyUnit"
						} ],
						"id": "KH9zmtexwb2oF8CXOcOmU4AmrpXoZvEZ",
						"nodeType": "sequence",
						"parameters": []
					} ],
					"id": "TcRXqTKnta8yjQMNszLhCVMiKmTLLlJb",
					"nodeType": "luaCondition",
					"parameters": [ {
						"name": "expression",
						"value": "bb.unitCounts.infiltrators < 4"
					}, {
						"name": "repeat",
						"value": "false"
					} ]
				}, {
					"children": [ {
						"children": [ {
							"children": [],
							"id": "m42MiXy3XzMv52SKbqmf2ji9Rl0X0DJ1",
							"nodeType": "luaCommand",
							"parameters": [ {
								"name": "condition",
								"value": "HaveEnoughMetal(\"armmav\", nil, nil)"
							}, {
								"name": "scriptName",
								"value": "waitUntil"
							} ],
							"scriptName": "waitUntil"
						}, {
							"children": [],
							"id": "4Zo3OIKVCgnQy2AQiVxhzW1QAc7L2UJ2",
							"nodeType": "luaCommand",
							"parameters": [ {
								"name": "unitName",
								"value": "'armmav'"
							}, {
								"name": "scriptName",
								"value": "nota_michelle_intro.buyUnit"
							} ],
							"scriptName": "nota_michelle_intro.buyUnit"
						} ],
						"id": "O9uSvHKl1dMI7j4N9gyYyifNUP53YexA",
						"nodeType": "sequence",
						"parameters": []
					} ],
					"id": "Bk5YctzMwJrZNaZebaEDsK31Jk5zaPoJ",
					"nodeType": "luaCondition",
					"parameters": [ {
						"name": "expression",
						"value": "true"
					}, {
						"name": "repeat",
						"value": "false"
					} ]
				} ],
				"id": "FnJnow22ZWhwWS9Qk9oDeckCRDGj7UoE",
				"nodeType": "selector",
				"parameters": [ {
					"name": "active",
					"value": "false"
				} ]
			}, {
				"children": [],
				"id": "edOpRgUyGchSFBa4W3E3HooUfQQ8xnVd",
				"nodeType": "wait",
				"parameters": [ {
					"name": "time",
					"value": 2
				} ]
			} ],
			"id": "9EJV0gK0wiLRWQw6vr1it95gIR4pnr7I",
			"nodeType": "sequence",
			"parameters": []
		} ],
		"id": "DZgBSnVAWDpzdEm62Sy9pjue1xPn6lnr",
		"nodeType": "repeat",
		"parameters": []
	}
}