{
	"additionalNodes": [],
	"additionalParameters": {
		"root": {
			"height": 190,
			"width": 247
		}
	},
	"inputs": [ {
		"command": "Variable",
		"name": "unitsToRescue"
	}, {
		"command": "Variable",
		"name": "peepers"
	} ],
	"outputs": [],
	"properties": {
		"8xuaXiQFNdnU6TBjOjD5lzUqdrv96UTe": {
			"height": 94,
			"title": "store - Display the grid of safe points",
			"width": 332,
			"x": 493,
			"y": 274
		},
		"OF6r41yCBkZmfThWP2RtssHmjUnU4hX5": {
			"height": 72,
			"title": "nota_michelle_intro.computePathsOverSafeGrid",
			"width": 387,
			"x": 494,
			"y": 363
		},
		"SXY2nRWbopwNuytfQ7pSFqcaK7tUSr0Q": {
			"height": 94,
			"title": "store - Display the safe paths to the units",
			"width": 340,
			"x": 493,
			"y": 497
		},
		"i29qgSZdKtjuZm23cLM1H4HhiSbxH4l1": {
			"height": 72,
			"title": "nota_michelle_intro.scanMapForEnemies",
			"width": 344,
			"x": 490,
			"y": 42
		},
		"nd6wTPxgTLD0cbF7IHbwu3UvBVxaIU50": {
			"height": 72,
			"title": "nota_michelle_intro.extractPathsToUnits",
			"width": 337,
			"x": 494,
			"y": 429
		},
		"vuQY4Gz02DcMINEZ4r2aAQ6VcRAwgSAu": {
			"height": 60,
			"title": "sequence",
			"width": 143,
			"x": 299,
			"y": 46
		},
		"z8SpPpcurb84F1022cmQ8wUDyFxtf6Ec": {
			"height": 172,
			"title": "nota_michelle_intro.findGridOfSafePoints",
			"width": 342,
			"x": 491,
			"y": 109
		}
	},
	"roles": [ {
		"categories": [],
		"name": "Role 0"
	} ],
	"root": {
		"children": [ {
			"children": [],
			"id": "i29qgSZdKtjuZm23cLM1H4HhiSbxH4l1",
			"nodeType": "luaCommand",
			"parameters": [ {
				"name": "peepers",
				"value": "peepers"
			}, {
				"name": "scriptName",
				"value": "nota_michelle_intro.scanMapForEnemies"
			} ],
			"scriptName": "nota_michelle_intro.scanMapForEnemies"
		}, {
			"children": [],
			"id": "z8SpPpcurb84F1022cmQ8wUDyFxtf6Ec",
			"nodeType": "luaCommand",
			"parameters": [ {
				"name": "enemyUnits",
				"value": "bb.enemiesInfo"
			}, {
				"name": "step",
				"value": "128"
			}, {
				"name": "heightThreshold",
				"value": "100"
			}, {
				"name": "enemyDistanceThreshold",
				"value": "1200"
			}, {
				"name": "enemyHeightThreshold",
				"value": "300"
			}, {
				"name": "lowEnemyDistanceThreshold",
				"value": "800"
			}, {
				"name": "scriptName",
				"value": "nota_michelle_intro.findGridOfSafePoints"
			} ],
			"scriptName": "nota_michelle_intro.findGridOfSafePoints"
		}, {
			"children": [],
			"id": "8xuaXiQFNdnU6TBjOjD5lzUqdrv96UTe",
			"nodeType": "luaCommand",
			"parameters": [ {
				"name": "var",
				"value": "_"
			}, {
				"name": "value",
				"value": "GridOfSafePointsDebug(bb.safePoints)"
			}, {
				"name": "scriptName",
				"value": "store"
			} ],
			"scriptName": "store"
		}, {
			"children": [],
			"id": "OF6r41yCBkZmfThWP2RtssHmjUnU4hX5",
			"nodeType": "luaCommand",
			"parameters": [ {
				"name": "safeArea",
				"value": "bb.missionInfo.safeArea"
			}, {
				"name": "scriptName",
				"value": "nota_michelle_intro.computePathsOverSafeGrid"
			} ],
			"scriptName": "nota_michelle_intro.computePathsOverSafeGrid"
		}, {
			"children": [],
			"id": "nd6wTPxgTLD0cbF7IHbwu3UvBVxaIU50",
			"nodeType": "luaCommand",
			"parameters": [ {
				"name": "unitsToRescue",
				"value": "unitsToRescue"
			}, {
				"name": "scriptName",
				"value": "nota_michelle_intro.extractPathsToUnits"
			} ],
			"scriptName": "nota_michelle_intro.extractPathsToUnits"
		}, {
			"children": [],
			"id": "SXY2nRWbopwNuytfQ7pSFqcaK7tUSr0Q",
			"nodeType": "luaCommand",
			"parameters": [ {
				"name": "var",
				"value": "_"
			}, {
				"name": "value",
				"value": "PathsToUnitsDebug(bb.pathsToUnits)"
			}, {
				"name": "scriptName",
				"value": "store"
			} ],
			"scriptName": "store"
		} ],
		"id": "vuQY4Gz02DcMINEZ4r2aAQ6VcRAwgSAu",
		"nodeType": "sequence",
		"parameters": []
	}
}